\relax 
\@writefile{toc}{\contentsline {section}{\numberline {1.}まえがき}{1}}
\@writefile{toc}{\contentsline {section}{\numberline {2.}複数AP間の同一チャネル共有手法}{1}}
\@writefile{toc}{\contentsline {section}{\numberline {3.}システムモデル}{1}}
\@writefile{lof}{\contentsline {figure}{\numberline {1}{\ignorespaces ネットワークモデル}}{1}}
\newlabel{zu1}{{1}{1}}
\@writefile{toc}{\contentsline {section}{\numberline {4.}理想的なチャネル選択}{1}}
\@writefile{toc}{\contentsline {section}{\numberline {5.}提案手法}{1}}
\bibcite{jiyuu}{1}
\bibcite{latex}{2}
\bibcite{latex}{3}
\@writefile{lot}{\contentsline {table}{\numberline {1}{\ignorespaces シミュレーション諸元}}{2}}
\newlabel{tab:size}{{1}{2}}
\@writefile{lof}{\contentsline {figure}{\numberline {2}{\ignorespaces チャネル選択の例}}{2}}
\newlabel{zu0}{{2}{2}}
